<?xml version="1.0" encoding="UTF-8" standalone="no"?>
<svg
   xmlns:dc="http://purl.org/dc/elements/1.1/"
   xmlns:cc="http://creativecommons.org/ns#"
   xmlns:rdf="http://www.w3.org/1999/02/22-rdf-syntax-ns#"
   xmlns:svg="http://www.w3.org/2000/svg"
   xmlns="http://www.w3.org/2000/svg"
   viewBox="0 0 426.66666 83.27774"
   height="83.27774"
   width="426.66666"
   xml:space="preserve"
   id="svg4552"
   version="1.1"><metadata
     id="metadata4558"><rdf:RDF><cc:Work
         rdf:about=""><dc:format>image/svg+xml</dc:format><dc:type
           rdf:resource="http://purl.org/dc/dcmitype/StillImage" /><dc:title></dc:title></cc:Work></rdf:RDF></metadata><defs
     id="defs4556" /><g
     transform="matrix(1.3333333,0,0,-1.3333333,0,83.27774)"
     id="g4560"><g
       id="g4562"><path
         id="path4564"
         style="fill:#000000;fill-opacity:1;fill-rule:nonzero;stroke:none"
         d="M 94.953,54.208 V 48.54 h 14.535 V 40.314 H 94.953 V 29.642 H 84.074 v 32.816 h 26.395 v -8.25 z m 26.805,-19.925 -1.692,-4.641 h -11.128 l 13.851,32.816 h 11.129 l 13.344,-32.816 h -11.563 l -1.644,4.641 z m 6.262,17.367 -3.45,-9.598 h 6.832 z m 34.164,-13.664 h 15.632 v -8.344 h -30.097 v 6.789 l 15.312,17.687 h -14.742 v 8.34 h 29.184 v -6.785 z m 29.754,16.222 v -4.023 h 15.332 v -8.227 h -15.332 v -4.09 h 17.296 v -8.226 h -28.175 v 32.816 h 27.765 v -8.25 z m 44.218,-24.566 -12.91,16.75 v -16.75 h -9.894 v 32.816 h 9.093 l 12.957,-16.863 v 16.863 h 9.825 V 29.642 Z m 28.383,32.816 c 3.594,0 6.734,-0.672 9.414,-2.011 2.68,-1.34 4.758,-3.25 6.227,-5.735 1.472,-2.484 2.207,-5.363 2.207,-8.64 0,-3.305 -0.75,-6.192 -2.254,-8.661 -1.5,-2.468 -3.629,-4.378 -6.387,-5.734 -2.758,-1.355 -5.965,-2.035 -9.621,-2.035 H 249.891 V 62.458 Z M 260.77,38.075 h 4.066 c 1.965,0 3.531,0.715 4.695,2.149 1.164,1.43 1.75,3.351 1.75,5.758 0,2.437 -0.633,4.386 -1.898,5.851 -1.266,1.461 -2.957,2.192 -5.074,2.192 h -3.543 z m 33.726,-3.792 -1.691,-4.641 h -11.129 l 13.851,32.816 h 11.129 L 320,29.642 h -11.562 l -1.645,4.641 z m 6.262,17.367 -3.449,-9.598 h 6.832 z" /><path
         id="path4566"
         style="fill:#000000;fill-opacity:1;fill-rule:nonzero;stroke:none"
         d="m 90.207,17.544 c 3.094,0 5.465,-0.754 7.121,-2.269 1.656,-1.516 2.481,-3.617 2.481,-6.317 0,-2.695 -0.805,-4.832 -2.418,-6.402 C 95.777,0.986 93.316,0.197 90.008,0.197 H 84.074 V 17.544 Z M 90.402,3.622 c 1.774,0 3.133,0.45 4.086,1.34 0.95,0.895 1.426,2.192 1.426,3.899 0,1.703 -0.476,3.015 -1.426,3.933 -0.953,0.918 -2.414,1.375 -4.383,1.375 h -2.16 V 3.622 Z m 30.782,5.348 v 1.16 c 0,0.774 -0.496,1.707 -1.489,2.801 -0.992,1.09 -2.215,1.637 -3.66,1.637 -1.449,0 -2.668,-0.547 -3.66,-1.637 -0.996,-1.094 -1.492,-2.414 -1.492,-3.961 0,-1.547 0.496,-2.859 1.492,-3.945 0.992,-1.082 2.211,-1.625 3.66,-1.625 1.445,0 2.668,0.543 3.66,1.625 0.993,1.086 1.489,2.398 1.489,3.945 z M 122.5,2.595 121.184,1.31 c -0.879,-0.856 -2.598,-1.285 -5.161,-1.285 -2.566,0 -4.726,0.855 -6.48,2.57 -1.754,1.711 -2.629,3.84 -2.629,6.391 0,2.547 0.875,4.675 2.629,6.386 1.754,1.715 3.914,2.571 6.48,2.571 2.563,0 4.723,-0.856 6.477,-2.571 1.754,-1.711 2.629,-3.839 2.629,-6.386 0,-2.551 -0.875,-4.68 -2.629,-6.391 z m 27.535,11.949 c -0.648,0 -1.156,-0.156 -1.527,-0.461 -0.371,-0.304 -0.559,-0.711 -0.559,-1.215 0,-0.503 0.227,-0.906 0.684,-1.203 0.453,-0.3 1.504,-0.652 3.152,-1.054 1.645,-0.407 2.922,-1.016 3.832,-1.825 0.91,-0.812 1.363,-1.996 1.363,-3.55 0,-1.555 -0.582,-2.817 -1.746,-3.786 -1.168,-0.964 -2.703,-1.449 -4.605,-1.449 -2.746,0 -5.219,1.016 -7.418,3.051 l 2.305,2.828 c 1.871,-1.637 3.601,-2.457 5.187,-2.457 0.711,0 1.27,0.156 1.676,0.461 0.406,0.305 0.609,0.719 0.609,1.242 0,0.52 -0.215,0.934 -0.648,1.239 -0.43,0.308 -1.281,0.617 -2.555,0.929 -2.019,0.481 -3.496,1.106 -4.43,1.875 -0.933,0.77 -1.402,1.977 -1.402,3.625 0,1.645 0.594,2.914 1.774,3.809 1.183,0.894 2.66,1.34 4.429,1.34 1.16,0 2.317,-0.2 3.477,-0.594 1.156,-0.399 2.168,-0.961 3.027,-1.691 l -1.961,-2.829 c -1.504,1.141 -3.062,1.715 -4.664,1.715 z m 28.27,-5.574 v 1.16 c 0,0.774 -0.496,1.707 -1.489,2.801 -0.992,1.09 -2.211,1.637 -3.66,1.637 -1.445,0 -2.668,-0.547 -3.66,-1.637 -0.992,-1.094 -1.488,-2.414 -1.488,-3.961 0,-1.547 0.496,-2.859 1.488,-3.945 0.992,-1.082 2.215,-1.625 3.66,-1.625 1.449,0 2.668,0.543 3.66,1.625 0.993,1.086 1.489,2.398 1.489,3.945 z m 1.316,-6.375 -1.316,-1.285 c -0.875,-0.856 -2.594,-1.285 -5.16,-1.285 -2.563,0 -4.723,0.855 -6.477,2.57 -1.754,1.711 -2.633,3.84 -2.633,6.391 0,2.547 0.879,4.675 2.633,6.386 1.754,1.715 3.914,2.571 6.477,2.571 2.566,0 4.722,-0.856 6.476,-2.571 1.754,-1.711 2.633,-3.839 2.633,-6.386 0,-2.551 -0.879,-4.68 -2.633,-6.391 z m 21.996,10.758 c -1.441,0.676 -2.805,1.015 -4.097,1.015 -1.29,0 -2.184,-0.289 -2.68,-0.867 -0.496,-0.578 -0.742,-1.332 -0.742,-2.258 V 9.677 h 5.73 V 6.255 h -5.73 V 0.197 h -3.871 v 10.746 c 0,2.3 0.625,4.043 1.871,5.226 1.25,1.184 2.882,1.774 4.902,1.774 0.895,0 1.785,-0.09 2.68,-0.274 0.894,-0.183 1.562,-0.363 2.011,-0.547 l 0.668,-0.273 z M 218.051,0.197 h -3.895 v 13.949 c -0.664,-0.184 -1.336,-0.434 -2.023,-0.758 -0.688,-0.32 -1.211,-0.598 -1.578,-0.832 l -0.52,-0.371 -2.035,2.953 c 0.879,0.793 2.074,1.461 3.586,1.996 1.516,0.539 3.016,0.809 4.504,0.809 1.488,0 2.988,-0.27 4.492,-0.809 1.508,-0.535 2.699,-1.203 3.574,-1.996 l -2.035,-2.953 c -1.223,0.894 -2.582,1.547 -4.07,1.961 z m 30.929,17.347 h 3.844 V 6.872 c 0,-2.183 -0.531,-3.875 -1.597,-5.074 -1.067,-1.199 -2.579,-1.797 -4.532,-1.797 -0.957,0 -1.847,0.203 -2.668,0.606 -0.816,0.406 -1.492,0.98 -2.019,1.726 -1.145,-1.554 -2.696,-2.332 -4.656,-2.332 -1.961,0 -3.473,0.598 -4.54,1.797 -1.066,1.199 -1.601,2.891 -1.601,5.074 v 10.672 h 3.848 V 6.872 c 0,-1.058 0.211,-1.871 0.632,-2.441 0.422,-0.57 1.024,-0.856 1.809,-0.856 0.789,0 1.402,0.286 1.852,0.856 0.445,0.57 0.668,1.383 0.668,2.441 l 0.027,10.672 h 3.918 l 0.027,-10.672 c 0,-1.058 0.223,-1.871 0.668,-2.441 0.449,-0.57 1.07,-0.856 1.863,-0.856 0.793,0 1.403,0.286 1.825,0.856 0.422,0.57 0.632,1.383 0.632,2.441 z M 261.668,0.197 v 9.902 c 0,2.566 0.652,4.516 1.961,5.848 1.305,1.332 3.125,1.996 5.457,1.996 2.336,0 4.148,-0.657 5.449,-1.973 1.297,-1.316 1.949,-3.223 1.949,-5.719 V 0.197 h -3.898 v 4.07 h -7.047 v -4.07 z m 3.871,10.027 V 7.693 h 7.047 v 2.406 c 0,1.391 -0.313,2.473 -0.941,3.238 -0.629,0.77 -1.493,1.156 -2.594,1.156 -1.102,0 -1.961,-0.367 -2.582,-1.105 -0.621,-0.734 -0.93,-1.789 -0.93,-3.164 z m 33.957,1.562 c 0,-2.777 -1.101,-4.574 -3.301,-5.382 l 4.391,-6.207 h -4.766 l -3.843,5.535 h -2.68 V 0.197 h -3.875 V 17.544 H 292 c 2.695,0 4.621,-0.453 5.77,-1.363 1.148,-0.91 1.726,-2.375 1.726,-4.395 z m -7.371,-2.703 c 1.324,0 2.223,0.215 2.703,0.645 0.481,0.43 0.723,1.113 0.723,2.047 0,0.937 -0.25,1.578 -0.746,1.925 -0.496,0.348 -1.364,0.52 -2.606,0.52 h -2.902 V 9.083 Z m 22.414,5.285 c -1.637,0 -2.457,-0.48 -2.457,-1.437 0,-1.309 1.102,-1.961 3.301,-1.961 h 2.781 V 7.642 h -2.73 c -1.637,0 -2.739,-0.164 -3.301,-0.496 -0.613,-0.328 -0.918,-0.875 -0.918,-1.637 0,-1.324 1.094,-1.984 3.277,-1.984 0.742,0 1.531,0.133 2.367,0.394 0.836,0.266 1.543,0.59 2.125,0.969 L 320,1.439 c -1.719,-0.942 -3.668,-1.414 -5.844,-1.414 -2.176,0 -3.871,0.468 -5.09,1.402 -1.214,0.934 -1.824,2.273 -1.824,4.02 0,1.746 0.805,3.105 2.41,4.082 -1.093,0.961 -1.64,2.16 -1.64,3.597 0,1.442 0.57,2.602 1.703,3.489 1.133,0.886 2.648,1.328 4.551,1.328 0.761,0 1.609,-0.102 2.546,-0.309 0.934,-0.207 1.715,-0.469 2.344,-0.785 l -0.746,-3.496 c -1.504,0.676 -2.793,1.015 -3.871,1.015 z" /><path
         id="path4568"
         style="fill:#000000;fill-opacity:1;fill-rule:nonzero;stroke:none"
         d="M 7.641,10.759 C -3.027,23.029 -2.523,41.638 9.148,53.31 20.82,64.982 39.43,65.486 51.699,54.818 Z M 54.816,51.7 C 65.484,39.431 64.984,20.818 53.312,9.146 41.641,-2.526 23.027,-3.026 10.758,7.642 Z" /></g></g></svg>